demos/stream/vcd/dump_avg.vcd
$date
   Tue Mar 31 23:46:35 2026
$end

$version
  2025.1.0
$end

$timescale
  1ps
$end

$scope module apatb_avgfilt_top $end
$var reg 1 ! AESL_clock $end
$var reg 1 " rst $end
$var reg 1 # dut_rst $end
$var reg 1 $ start $end
$var reg 1 % ce $end
$var reg 1 & tb_continue $end
$var wire 1 ' AESL_start $end
$var wire 1 ( AESL_reset $end
$var wire 1 ) AESL_ce $end
$var wire 1 * AESL_ready $end
$var wire 1 + AESL_idle $end
$var wire 1 , AESL_continue $end
$var wire 1 - AESL_done $end
$var reg 1 . AESL_done_delay $end
$var reg 1 / AESL_done_delay2 $end
$var reg 1 0 AESL_ready_delay $end
$var wire 1 1 ready $end
$var wire 1 2 ready_wire $end
$var wire 32 3 in_stream_TDATA [31:0] $end
$var wire 1 4 in_stream_TVALID $end
$var wire 1 5 in_stream_TREADY $end
$var wire 32 6 out_stream_TDATA [31:0] $end
$var wire 1 7 out_stream_TVALID $end
$var wire 1 8 out_stream_TREADY $end
$var reg 32 9 ap_c_n_tvin_trans_num_in_stream [31:0] $end
$var reg 32 : ap_c_n_tvout_trans_num_out_stream [31:0] $end
$var integer 32 ; done_cnt [31:0] $end
$var integer 32 < AESL_ready_cnt [31:0] $end
$var integer 32 = ready_cnt [31:0] $end
$var reg 1 > ready_initial $end
$var reg 1 ? ready_initial_n $end
$var reg 1 @ ready_last_n $end
$var reg 1 A ready_delay_last_n $end
$var reg 1 B done_delay_last_n $end
$var reg 1 C interface_done $end
$var wire 1 D all_finish $end
$var wire 1 E ap_clk $end
$var wire 1 F ap_rst_n $end
$var wire 1 G ap_rst_n_n $end
$var reg 32 H clk_cnt [31:0] $end
$var reg 1 I AESL_ready_p1 $end
$var reg 1 J AESL_start_p1 $end
$var reg 32 K start_cnt [31:0] $end
$var reg 32 L ap_ready_cnt [31:0] $end
$var reg 32 M finish_cnt [31:0] $end
$var reg 32 N lat_total [31:0] $end
$var event 32 O report_progress $end
$var reg 32 P progress_timeout [31:0] $end
$scope module AESL_inst_avgfilt $end
$var wire 1 E ap_clk $end
$var wire 1 F ap_rst_n $end
$var wire 32 3 in_stream_TDATA [31:0] $end
$var wire 1 4 in_stream_TVALID $end
$var wire 1 5 in_stream_TREADY $end
$var wire 32 6 out_stream_TDATA [31:0] $end
$var wire 1 7 out_stream_TVALID $end
$var wire 1 8 out_stream_TREADY $end
$var reg 1 Q ap_rst_n_inv $end
$var reg 1 R in_stream_TDATA_blk_n $end
$var reg 2 S ap_CS_fsm [1:0] $end
$var wire 1 T ap_CS_fsm_pp0_stage0 $end
$var reg 1 U ap_enable_reg_pp0_iter0 $end
$var wire 1 V ap_block_pp0_stage0_grp1 $end
$var reg 1 W out_stream_TDATA_blk_n $end
$var reg 1 X ap_enable_reg_pp0_iter17 $end
$var reg 1 Y ap_enable_reg_pp0_iter18 $end
$var wire 32 Z xi_fu_88_p1 [31:0] $end
$var reg 1 [ ap_block_pp0_stage0_11001_grp1 $end
$var wire 32 \ grp_fu_69_p2 [31:0] $end
$var reg 32 ] xsq_reg_135 [31:0] $end
$var reg 32 ^ mul12_load_reg_141 [31:0] $end
$var reg 32 _ mul12_load_reg_141_pp0_iter5_reg [31:0] $end
$var reg 32 ` mul12_load_reg_141_pp0_iter6_reg [31:0] $end
$var reg 32 a mul12_load_reg_141_pp0_iter7_reg [31:0] $end
$var reg 32 b mul12_load_reg_141_pp0_iter8_reg [31:0] $end
$var wire 32 c grp_fu_61_p2 [31:0] $end
$var reg 32 d add_reg_151 [31:0] $end
$var wire 32 e grp_fu_65_p2 [31:0] $end
$var reg 32 f add1_reg_156 [31:0] $end
$var wire 1 g ap_CS_fsm_state1 $end
$var reg 1 h ap_enable_reg_pp0_iter1 $end
$var reg 1 i ap_block_pp0_stage0_subdone $end
$var reg 1 j ap_enable_reg_pp0_iter2 $end
$var reg 1 k ap_enable_reg_pp0_iter3 $end
$var reg 1 l ap_enable_reg_pp0_iter4 $end
$var reg 1 m ap_enable_reg_pp0_iter5 $end
$var reg 1 n ap_enable_reg_pp0_iter6 $end
$var reg 1 o ap_enable_reg_pp0_iter7 $end
$var reg 1 p ap_enable_reg_pp0_iter8 $end
$var reg 1 q ap_enable_reg_pp0_iter9 $end
$var reg 1 r ap_enable_reg_pp0_iter10 $end
$var reg 1 s ap_enable_reg_pp0_iter11 $end
$var reg 1 t ap_enable_reg_pp0_iter12 $end
$var reg 1 u ap_enable_reg_pp0_iter13 $end
$var reg 1 v ap_enable_reg_pp0_iter14 $end
$var reg 1 w ap_enable_reg_pp0_iter15 $end
$var reg 1 x ap_enable_reg_pp0_iter16 $end
$var reg 32 y mul12_fu_40 [31:0] $end
$var reg 32 z mul1_fu_44 [31:0] $end
$var reg 1 { ap_block_pp0_stage0_01001_grp1 $end
$var wire 32 | grp_fu_73_p2 [31:0] $end
$var reg 1 } grp_fu_61_ce $end
$var reg 1 ~ ap_block_pp0_stage0_11001 $end
$var reg 1 !! grp_fu_65_ce $end
$var reg 1 "! grp_fu_69_ce $end
$var reg 1 #! grp_fu_73_ce $end
$var reg 2 $! ap_NS_fsm [1:0] $end
$var wire 1 %! ap_ST_fsm_state1_blk $end
$var reg 1 &! ap_idle_pp0 $end
$var wire 1 '! ap_enable_pp0 $end
$var wire 1 (! regslice_both_in_stream_U_apdone_blk $end
$var wire 32 )! in_stream_TDATA_int_regslice [31:0] $end
$var wire 1 *! in_stream_TVALID_int_regslice $end
$var reg 1 +! in_stream_TREADY_int_regslice $end
$var wire 1 ,! regslice_both_in_stream_U_ack_in $end
$var wire 1 -! regslice_both_out_stream_U_apdone_blk $end
$var wire 32 .! out_stream_TDATA_int_regslice [31:0] $end
$var reg 1 /! out_stream_TVALID_int_regslice $end
$var wire 1 0! out_stream_TREADY_int_regslice $end
$var wire 1 1! regslice_both_out_stream_U_vld_out $end
$var wire 1 2! ap_ce_reg $end
$scope module fadd_32ns_32ns_32_5_full_dsp_1_U1 $end
$var wire 1 E clk $end
$var wire 1 3! reset $end
$var wire 1 4! ce $end
$var wire 32 5! din0 [31:0] $end
$var wire 32 6! din1 [31:0] $end
$var wire 32 c dout [31:0] $end
$var wire 1 7! aclk $end
$var wire 1 8! aclken $end
$var wire 1 9! a_tvalid $end
$var wire 32 :! a_tdata [31:0] $end
$var wire 1 ;! b_tvalid $end
$var wire 32 <! b_tdata [31:0] $end
$var wire 1 =! r_tvalid $end
$var wire 32 >! r_tdata [31:0] $end
$var reg 32 ?! din0_buf1 [31:0] $end
$var reg 32 @! din1_buf1 [31:0] $end
$var reg 1 A! ce_r $end
$var wire 32 B! dout_i [31:0] $end
$var reg 32 C! dout_r [31:0] $end
$scope module avgfilt_fadd_32ns_32ns_32_5_full_dsp_1_ip_u $end
$var wire 1 D! aclk $end
$var wire 1 E! aclken $end
$var wire 1 F! s_axis_a_tvalid $end
$var wire 32 G! s_axis_a_tdata $end
$var wire 1 H! s_axis_b_tvalid $end
$var wire 32 I! s_axis_b_tdata $end
$var wire 1 J! m_axis_result_tvalid $end
$var wire 32 K! m_axis_result_tdata $end
$upscope $end
$upscope $end
$scope module fadd_32ns_32ns_32_5_full_dsp_1_U2 $end
$var wire 1 E clk $end
$var wire 1 L! reset $end
$var wire 1 M! ce $end
$var wire 32 N! din0 [31:0] $end
$var wire 32 O! din1 [31:0] $end
$var wire 32 e dout [31:0] $end
$var wire 1 P! aclk $end
$var wire 1 Q! aclken $end
$var wire 1 R! a_tvalid $end
$var wire 32 S! a_tdata [31:0] $end
$var wire 1 T! b_tvalid $end
$var wire 32 U! b_tdata [31:0] $end
$var wire 1 V! r_tvalid $end
$var wire 32 W! r_tdata [31:0] $end
$var reg 32 X! din0_buf1 [31:0] $end
$var reg 32 Y! din1_buf1 [31:0] $end
$var reg 1 Z! ce_r $end
$var wire 32 [! dout_i [31:0] $end
$var reg 32 \! dout_r [31:0] $end
$scope module avgfilt_fadd_32ns_32ns_32_5_full_dsp_1_ip_u $end
$var wire 1 ]! aclk $end
$var wire 1 ^! aclken $end
$var wire 1 _! s_axis_a_tvalid $end
$var wire 32 `! s_axis_a_tdata $end
$var wire 1 a! s_axis_b_tvalid $end
$var wire 32 b! s_axis_b_tdata $end
$var wire 1 c! m_axis_result_tvalid $end
$var wire 32 d! m_axis_result_tdata $end
$upscope $end
$upscope $end
$scope module fmul_32ns_32ns_32_4_max_dsp_1_U3 $end
$var wire 1 E clk $end
$var wire 1 e! reset $end
$var wire 1 f! ce $end
$var wire 32 Z din0 [31:0] $end
$var wire 32 Z din1 [31:0] $end
$var wire 32 \ dout [31:0] $end
$var wire 1 g! aclk $end
$var wire 1 h! aclken $end
$var wire 1 i! a_tvalid $end
$var wire 32 j! a_tdata [31:0] $end
$var wire 1 k! b_tvalid $end
$var wire 32 l! b_tdata [31:0] $end
$var wire 1 m! r_tvalid $end
$var wire 32 n! r_tdata [31:0] $end
$var reg 32 o! din0_buf1 [31:0] $end
$var reg 32 p! din1_buf1 [31:0] $end
$var reg 1 q! ce_r $end
$var wire 32 r! dout_i [31:0] $end
$var reg 32 s! dout_r [31:0] $end
$scope module avgfilt_fmul_32ns_32ns_32_4_max_dsp_1_ip_u $end
$var wire 1 t! aclk $end
$var wire 1 u! aclken $end
$var wire 1 v! s_axis_a_tvalid $end
$var wire 32 w! s_axis_a_tdata $end
$var wire 1 x! s_axis_b_tvalid $end
$var wire 32 y! s_axis_b_tdata $end
$var wire 1 z! m_axis_result_tvalid $end
$var wire 32 {! m_axis_result_tdata $end
$upscope $end
$upscope $end
$scope module fmul_32ns_32ns_32_4_max_dsp_1_U4 $end
$var wire 1 E clk $end
$var wire 1 |! reset $end
$var wire 1 }! ce $end
$var wire 32 ~! din0 [31:0] $end
$var wire 32 !" din1 [31:0] $end
$var wire 32 | dout [31:0] $end
$var wire 1 "" aclk $end
$var wire 1 #" aclken $end
$var wire 1 $" a_tvalid $end
$var wire 32 %" a_tdata [31:0] $end
$var wire 1 &" b_tvalid $end
$var wire 32 '" b_tdata [31:0] $end
$var wire 1 (" r_tvalid $end
$var wire 32 )" r_tdata [31:0] $end
$var reg 32 *" din0_buf1 [31:0] $end
$var reg 32 +" din1_buf1 [31:0] $end
$var reg 1 ," ce_r $end
$var wire 32 -" dout_i [31:0] $end
$var reg 32 ." dout_r [31:0] $end
$scope module avgfilt_fmul_32ns_32ns_32_4_max_dsp_1_ip_u $end
$var wire 1 /" aclk $end
$var wire 1 0" aclken $end
$var wire 1 1" s_axis_a_tvalid $end
$var wire 32 2" s_axis_a_tdata $end
$var wire 1 3" s_axis_b_tvalid $end
$var wire 32 4" s_axis_b_tdata $end
$var wire 1 5" m_axis_result_tvalid $end
$var wire 32 6" m_axis_result_tdata $end
$upscope $end
$upscope $end
$scope module regslice_both_in_stream_U $end
$var wire 1 E ap_clk $end
$var wire 1 7" ap_rst $end
$var wire 32 3 data_in [31:0] $end
$var wire 1 4 vld_in $end
$var wire 1 ,! ack_in $end
$var wire 32 )! data_out [31:0] $end
$var wire 1 *! vld_out $end
$var wire 1 8" ack_out $end
$var wire 1 (! apdone_blk $end
$var reg 32 9" data_p1 [31:0] $end
$var reg 32 :" data_p2 [31:0] $end
$var wire 1 ;" load_p1 $end
$var wire 1 <" load_p2 $end
$var wire 1 =" load_p1_from_p2 $end
$var reg 1 >" ack_in_t $end
$var reg 2 ?" state [1:0] $end
$var reg 2 @" next [1:0] $end
$upscope $end
$scope module regslice_both_out_stream_U $end
$var wire 1 E ap_clk $end
$var wire 1 A" ap_rst $end
$var wire 32 .! data_in [31:0] $end
$var wire 1 B" vld_in $end
$var wire 1 0! ack_in $end
$var wire 32 6 data_out [31:0] $end
$var wire 1 1! vld_out $end
$var wire 1 8 ack_out $end
$var wire 1 -! apdone_blk $end
$var reg 32 C" data_p1 [31:0] $end
$var reg 32 D" data_p2 [31:0] $end
$var wire 1 E" load_p1 $end
$var wire 1 F" load_p2 $end
$var wire 1 G" load_p1_from_p2 $end
$var reg 1 H" ack_in_t $end
$var reg 2 I" state [1:0] $end
$var reg 2 J" next [1:0] $end
$upscope $end
$upscope $end
$scope begin initial_process $end
$var integer 32 K" proc_rand [31:0] $end
$upscope $end
$scope begin initial_process_for_dut_rst $end
$var integer 32 L" proc_rand [31:0] $end
$upscope $end
$scope module svtb_top $end
$scope module misc_if $end
$var wire 1 M" clock $end
$var wire 1 N" reset $end
$var reg 1 O" dut2tb_ap_done $end
$var reg 1 P" dut2tb_ap_done_kernel $end
$var reg 1 Q" dut2tb_ap_idle $end
$var reg 1 R" dut2tb_ap_ready $end
$var reg 1 S" tb2dut_ap_start $end
$var reg 1 T" tb2dut_ap_continue $end
$var reg 1 U" ap_ready_for_nexttrans $end
$var reg 1 V" ap_done_for_nexttrans $end
$var reg 1 W" initialed $end
$var reg 1 X" finished $end
$var event 32 Y" dut2tb_ap_ready_evt $end
$var event 32 Z" dut2tb_ap_done_evt $end
$var event 32 [" initialed_evt $end
$var event 32 \" finished_evt $end
$upscope $end
$scope module svr_in_stream_if $end
$var wire 1 M" clk $end
$var wire 1 N" rst $end
$var reg 32 ]" data [31:0] $end
$var reg 1 ^" valid $end
$var reg 1 _" ready $end
$var reg 1 `" x $end
$var reg 1 a" y $end
$var reg 1 `" x $end
$var reg 1 a" y $end
$var reg 32 b" data [31:0] $end
$upscope $end
$scope module svr_out_stream_if $end
$var wire 1 M" clk $end
$var wire 1 N" rst $end
$var reg 32 c" data [31:0] $end
$var reg 1 d" valid $end
$var reg 1 e" ready $end
$var reg 1 f" x $end
$var reg 1 f" y $end
$var reg 1 f" x $end
$var reg 1 f" y $end
$var reg 32 g" data [31:0] $end
$upscope $end
$upscope $end
$scope begin simulation_progress $end
$var real 32 h" intra_progress $end
$upscope $end
$scope module kernel_monitor_top $end
$var wire 1 i" kernel_monitor_clock $end
$var wire 1 j" kernel_monitor_reset $end
$var wire 2 k" axis_block_sigs [1:0] $end
$var wire 1 l" inst_idle_sigs [0:0] $end
$var wire 1 m" inst_block_sigs [0:0] $end
$var wire 1 n" kernel_block $end
$scope module AESL_deadlock_idx0_monitor_U $end
$var wire 1 i" clock $end
$var wire 1 j" reset $end
$var wire 2 k" axis_block_sigs [1:0] $end
$var wire 1 l" inst_idle_sigs [0:0] $end
$var wire 1 m" inst_block_sigs [0:0] $end
$var wire 1 n" block $end
$var reg 4 o" monitor_axis_block_info [3:0] $end
$var reg 1 p" monitor_find_block $end
$var wire 1 q" sub_parallel_block $end
$var wire 1 r" all_sub_parallel_has_block $end
$var wire 1 s" all_sub_single_has_block $end
$var wire 1 t" cur_axis_has_block $end
$var wire 1 u" seq_is_axis_block $end
$upscope $end
$scope begin trigger_axis_deadlock $end
$var reg 1 v" block_delay $end
$upscope $end
$upscope $end
$scope module U_dataflow_monitor $end
$var wire 1 w" clock $end
$var wire 1 x" reset $end
$var wire 1 D finish $end
$var reg 32 y" mstatus_csv_dumper_1 $end
$var reg 32 z" module_monitor_1 $end
$var reg 32 {" sample_manager_inst $end
$scope module module_intf_1 $end
$var wire 1 w" clock $end
$var wire 1 x" reset $end
$var reg 1 |" finish $end
$var reg 1 }" ap_start $end
$var reg 1 ~" ap_ready $end
$var reg 1 !# ap_done $end
$var reg 1 "# ap_continue $end
$upscope $end
$scope task last_transaction_done $end
$upscope $end
$upscope $end
$scope task wait_start $end
$upscope $end
$scope task print_progress $end
$var real 32 ## intra_progress $end
$upscope $end
$scope task calculate_performance $end
$var integer 32 $# i [31:0] $end
$var integer 32 %# fp [31:0] $end
$var integer 32 &# real_cnt [31:0] $end
$var integer 32 '# valid_cnt [31:0] $end
$var reg 32 (# latency_min [31:0] $end
$var reg 32 )# latency_max [31:0] $end
$var reg 32 *# latency_total [31:0] $end
$var reg 32 +# latency_average [31:0] $end
$var reg 32 ,# interval_min [31:0] $end
$var reg 32 -# interval_max [31:0] $end
$var reg 32 .# interval_total [31:0] $end
$var reg 32 /# interval_average [31:0] $end
$var reg 32 0# total_execute_time [31:0] $end
$upscope $end
$scope begin NetRegassign94_543 $end
$upscope $end
$upscope $end
$enddefinitions $end

#0
$dumpvars
0!
1!!
b111110101010101010101010101011 !"
0!#
0"
0"!
0""
0"#
0#
1#!
x#"
r0 ##
x$
b10 $!
1$"
bx $#
x%
0%!
bx %"
bx %#
x&
1&!
1&"
bx &#
0'
0'!
bx '"
bx '#
0(
0(!
0("
bx (#
z)
b0 )!
b0 )"
bx )#
0*
0*!
bx *"
bx *#
z+
0+!
bx +"
bx +#
z,
0,!
x,"
bx ,#
0-
0-!
b0 -"
bx -#
0.
bx .!
bx ."
bx .#
0/
0/!
0/"
bx /#
00
00!
x0"
bx 0#
z1
01!
11"
z2
z2!
bx 2"
b0 3
13!
13"
04
14!
bx 4"
05
bx 5!
05"
b0 6
b0 6!
b0 6"
07
07!
17"
08
x8!
08"
bx 9
19!
b0 9"
bx :
bx :!
b0 :"
b0 ;
1;!
0;"
b0 <
bx <!
0<"
b0 =
0=!
0="
x>
b0 >!
0>"
x?
bx ?!
b0 ?"
x@
bx @!
b10 @"
xA
xA!
1A"
xB
b0 B!
0B"
0C
bx C!
b0 C"
0D
0D!
b0 D"
0E
xE!
0E"
0F
1F!
0F"
1G
bx G!
0G"
b0 H
1H!
0H"
xI
bx I!
b0 I"
xJ
0J!
b10 J"
b0 K
b0 K!
bx K"
b0 L
1L!
bx L"
b0 M
1M!
0M"
bx N
bx N!
0N"
bx O
bx O!
0O"
bx P
0P!
xP"
1Q
xQ!
xQ"
1R
1R!
0R"
b1 S
bx S!
0S"
0T
1T!
0T"
0U
bx U!
0U"
0V
0V!
0V"
1W
b0 W!
0W"
0X
bx X!
0X"
0Y
bx Y!
bx Y"
b0 Z
xZ!
bx Z"
0[
b0 [!
bx ["
bx \
bx \!
bx \"
bx ]
0]!
b0 ]"
bx ^
x^!
0^"
bx _
1_!
0_"
bx `
bx `!
0`"
bx a
1a!
0a"
bx b
bx b!
b0 b"
bx c
0c!
b0 c"
bx d
b0 d!
0d"
bx e
1e!
0e"
bx f
0f!
0f"
1g
0g!
b100111000100000000100 g"
0h
xh!
r0 h"
0i
1i!
0i"
0j
bx j!
1j"
0k
1k!
b0 k"
0l
bx l!
0l"
0m
0m!
0m"
0n
b0 n!
xn"
0o
bx o!
bx o"
0p
bx p!
xp"
0q
xq!
zq"
0r
b0 r!
0r"
0s
bx s!
0s"
0t
0t!
0t"
0u
xu!
0u"
0v
1v!
0v"
0w
bx w!
0w"
0x
1x!
1x"
b0 y
bx y!
b100011101010100110011000111000 y"
b0 z
0z!
b100011101110100010010000111000 z"
0{
b0 {!
b100011101000110000000100000000 {"
bx |
1|!
0|"
1}
1}!
0}"
0~
bx ~!
0~"
$end

#5000
1!
1""
1#"
b111110101010101010101010101011 '"
b111110101010101010101010101011 +"
1,"
b0 .!
1/"
10"
b111110101010101010101010101011 4"
17!
18!
b0 <!
b10 ?"
b0 @!
1A!
1D!
1E
1E!
0I
b0 I!
b10 I"
0J
1M"
1P!
1Q!
1Z!
1]!
b0 ^
1^!
b0 c
b0 e
1g!
0h!
1i"
0n"
0p"
0q!
1t!
0u!
1w"
b0 |

#10000
0!
0""
0/"
07!
0D!
0E
0M"
0P!
0]!
0g!
0i"
0t!
0w"

#15000
1!
1""
b1000000000000000000000000000000 )"
b1000000000000000000000000000000 -"
b1000000000000000000000000000000 .!
b0 ."
1/"
b1000000000000000000000000000000 6"
17!
b0 C!
1D!
1E
1M"
b0 N!
1P!
b0 \!
1]!
b0 _
b0 d
b0 f
1g!
1i"
1t!
1w"
b1000000000000000000000000000000 |
b0 ~!

#20000
0!
0""
0/"
07!
0D!
0E
0M"
0P!
0]!
0g!
0i"
0t!
0w"

#25000
1!
1""
b0 %"
1("
bx )"
b0 *"
bx -"
bx .!
b1000000000000000000000000000000 ."
1/"
b0 2"
15"
bx 6"
17!
b1111010000000000000000000000000 >!
b1111010000000000000000000000000 B!
1D!
1E
b1111010000000000000000000000000 K!
1M"
1P!
b0 S!
b1111010000000000000000000000000 W!
b0 X!
b1111010000000000000000000000000 [!
1]!
b0 `
b0 `!
b1111010000000000000000000000000 c
b1111010000000000000000000000000 d!
b1111010000000000000000000000000 e
1g!
1i"
1t!
1w"
bx |

#25100
b100000000000000000000000 >!
b100000000000000000000000 B!
b100000000000000000000000 K!
b100000000000000000000000 W!
b100000000000000000000000 [!
b100000000000000000000000 c
b100000000000000000000000 d!
b100000000000000000000000 e

#30000
0!
0""
0/"
07!
0D!
0E
0M"
0P!
0]!
0g!
0i"
0t!
0w"

#35000
1!
1""
bx ."
1/"
17!
1=!
b0 >!
b0 B!
b100000000000000000000000 C!
1D!
1E
1J!
b0 K!
1M"
b100000000000000000000000 N!
1P!
1V!
bx0000000000000000000000000000000 W!
bx0000000000000000000000000000000 [!
b100000000000000000000000 \!
1]!
b0 a
b0 c
1c!
b100000000000000000000000 d
bx0000000000000000000000000000000 d!
bx0000000000000000000000000000000 e
b100000000000000000000000 f
1g!
1i"
1t!
1w"
b100000000000000000000000 ~!

#40000
0!
0""
0/"
07!
0D!
0E
0M"
0P!
0]!
0g!
0i"
0t!
0w"

#45000
1!
1""
b100000000000000000000000 %"
b0 )"
b100000000000000000000000 *"
b0 -"
b0 .!
1/"
b100000000000000000000000 2"
b0 6"
17!
b0 C!
1D!
1E
1M"
b0 N!
b0 O!
1P!
b100000000000000000000000 S!
b100000000000000000000000 X!
bx0000000000000000000000000000000 \!
1]!
b100000000000000000000000 `!
b0 b
b0 d
bx0000000000000000000000000000000 f
1g!
1i"
1t!
1w"
b0 |
bx0000000000000000000000000000000 ~!

#50000
0!
0""
0/"
07!
0D!
0E
0M"
0P!
0]!
0g!
0i"
0t!
0w"

#55000
1!
1""
bx0000000000000000000000000000000 %"
bx0000000000000000000000000000000 *"
b0 ."
1/"
bx0000000000000000000000000000000 2"
17!
1D!
1E
1M"
1P!
b0 S!
b0 U!
b0 W!
b0 X!
b0 Y!
b0 [!
1]!
b0 `!
b0 b!
b0 d!
b0 e
1g!
1i"
1t!
1w"

#60000
0!
0""
0/"
07!
0D!
0E
0M"
0P!
0]!
0g!
0i"
0t!
0w"

#65000
1!
1""
1/"
17!
1D!
1E
1M"
1P!
b0 \!
1]!
b0 f
1g!
1i"
1t!
1w"
b0 ~!

#70000
0!
0""
0/"
07!
0D!
0E
0M"
0P!
0]!
0g!
0i"
0t!
0w"

#75000
1!
1""
b0 %"
bx0000000000000000000000000000000 )"
b0 *"
bx0000000000000000000000000000000 -"
bx0000000000000000000000000000000 .!
1/"
b0 2"
bx0000000000000000000000000000000 6"
17!
1D!
1E
1M"
1P!
1]!
1g!
1i"
1t!
1w"
bx0000000000000000000000000000000 |

#80000
0!
0""
0/"
07!
0D!
0E
0M"
0P!
0]!
0g!
0i"
0t!
0w"

#85000
1!
1""
bx0000000000000000000000000000000 ."
1/"
17!
1D!
1E
1M"
1P!
1]!
1g!
1i"
1t!
1w"

#90000
0!
0""
0/"
07!
0D!
0E
0M"
0P!
0]!
0g!
0i"
0t!
0w"

#95000
1!
1""
b0 )"
b0 -"
b0 .!
1/"
b0 6"
17!
1D!
1E
1M"
1P!
1]!
1g!
1i"
1t!
1w"
b0 |

#100000
0!
0""
0/"
07!
0D!
0E
0M"
0P!
0]!
0g!
0i"
0t!
0w"

#105000
1!
1""
b0 ."
1/"
17!
1D!
1E
1M"
1P!
1]!
1g!
1i"
1t!
1w"

#110000
0!
0""
0/"
07!
0D!
0E
0M"
0P!
0]!
0g!
0i"
0t!
0w"

#115000
1!
1""
1/"
17!
1D!
1E
1M"
1P!
1]!
1g!
1i"
1t!
1w"

#120000
0!
0""
0/"
07!
0D!
0E
0M"
0P!
0]!
0g!
0i"
0t!
0w"

#125000
1!
1""
1/"
17!
1D!
1E
1M"
1P!
1]!
1g!
1i"
1t!
1w"

#125100
1"
1#
1'
1(
03!
14
07"
18
1;"
0A"
1F
0G
0L!
1N"
b100110001001011010000000 P
0Q
1S"
1^"
0e!
1e"
0j"
0x"
0|!

#130000
0!
0""
0/"
07!
0D!
0E
0M"
0P!
0]!
0g!
0i"
0t!
0w"

#135000
1!
0!!
1""
0#!
0&!
1'!
0+!
1,!
1/"
10!
04!
15
17!
08"
1<"
1>"
b11 @"
1D!
1E
b1 H
1H"
1J
b1 K
0M!
1M"
b100110001001011001111111 P
1P!
0R
b10 S
1T
1U
1[
1]!
1_"
0g
1g!
1i
1i"
b1 k"
1t!
1t"
1u"
1w"
1{
0}
0}!
1~

#140000
0!
0""
0/"
07!
0D!
0E
0M"
0P!
0]!
0g!
0i"
0t!
0w"

#145000
1!
1!!
1"!
1""
1#!
0#"
0(!
1*!
1+!
0,"
1/"
00"
b111111100000000000000000000000 3
14
14!
17!
08!
18"
1;"
1<"
b11 ?"
b11 @"
0A!
1D!
1E
0E!
b10 H
1M!
1M"
b100110001001011001111110 P
1P!
0Q!
1R
0Z!
0[
1]!
b111111100000000000000000000000 ]"
0^!
1^"
1f!
1g!
0i
1i"
b0 k"
1n"
1p"
1t!
0t"
0u"
1w"
0{
1}
1}!
0~

#150000
0!
0""
0/"
07!
0D!
0E
0M"
0P!
0]!
0g!
0i"
0t!
0w"

#155000
1!
1""
1#"
b111111100000000000000000000000 )!
1,"
1/"
10"
b1000000000000000000000000000000 3
14
17!
18!
b111111100000000000000000000000 9"
b111111100000000000000000000000 :"
1;"
1<"
b11 @"
1A!
1D!
1E
1E!
b11 H
1M"
b100110001001011001111101 P
1P!
1Q!
b111111100000000000000000000000 Z
1Z!
b0 \
1]!
b1000000000000000000000000000000 ]"
1^!
1^"
1g!
1h
1h!
1i"
b0 j!
b0 l!
0n"
b0 o!
b0 p!
0p"
1q!
1t!
1u!
1v"
b0 w!
1w"
b0 y!

#160000
0!
0""
0/"
07!
0D!
0E
0M"
0P!
0]!
0g!
0i"
0t!
0w"

#165000
1!
1""
b1000000000000000000000000000000 )!
1/"
b10111111100000000000000000000000 3
14
b0 5!
17!
b1000000000000000000000000000000 9"
b1000000000000000000000000000000 :"
1;"
1<"
b11 @"
1D!
1E
b100 H
1M"
b100110001001011001111100 P
1P!
b1000000000000000000000000000000 Z
b1000000000000000000000000000000 \
b0 ]
1]!
b10111111100000000000000000000000 ]"
1^"
1g!
1i"
1j
b111111100000000000000000000000 j!
b111111100000000000000000000000 l!
b1000000000000000000000000000000 n!
b111111100000000000000000000000 o!
b111111100000000000000000000000 p!
b1000000000000000000000000000000 r!
b0 s!
1t!
b111111100000000000000000000000 w!
1w"
b111111100000000000000000000000 y!
b1000000000000000000000000000000 {!

#170000
0!
0""
0/"
07!
0D!
0E
0M"
0P!
0]!
0g!
0i"
0t!
0w"

#175000
1!
1""
b10111111100000000000000000000000 )!
1/"
b1000000010000000000000000000000 3
14
b1000000000000000000000000000000 5!
17!
b10111111100000000000000000000000 9"
b0 :!
b10111111100000000000000000000000 :"
1;"
1<"
b0 ?!
b11 @"
1D!
1E
b0 G!
b101 H
1M"
b100110001001011001111011 P
1P!
b10111111100000000000000000000000 Z
b0 \
b1000000000000000000000000000000 ]
1]!
b1000000010000000000000000000000 ]"
1^"
1g!
1i"
b1000000000000000000000000000000 j!
1k
b1000000000000000000000000000000 l!
1m!
b0 n!
b1000000000000000000000000000000 o!
b1000000000000000000000000000000 p!
b0 r!
b1000000000000000000000000000000 s!
1t!
b1000000000000000000000000000000 w!
1w"
b1000000000000000000000000000000 y!
1z!
b0 {!

#180000
0!
0""
0/"
07!
0D!
0E
0M"
0P!
0]!
0g!
0i"
0t!
0w"

#185000
1!
1""
b1000000010000000000000000000000 )!
1/"
b1000000100000000000000000000000 3
14
b0 5!
17!
b1000000010000000000000000000000 9"
b1000000000000000000000000000000 :!
b1000000010000000000000000000000 :"
1;"
1<"
b1000000000000000000000000000000 ?!
b11 @"
1D!
1E
b1000000000000000000000000000000 G!
b110 H
1M"
b100110001001011001111010 P
1P!
b1000000010000000000000000000000 Z
b111111100000000000000000000000 \
b0 ]
1]!
b1000000100000000000000000000000 ]"
1^"
1g!
1i"
b10111111100000000000000000000000 j!
1l
b10111111100000000000000000000000 l!
b111111100000000000000000000000 n!
b10111111100000000000000000000000 o!
b10111111100000000000000000000000 p!
b111111100000000000000000000000 r!
b0 s!
1t!
b10111111100000000000000000000000 w!
1w"
b10111111100000000000000000000000 y!
b111111100000000000000000000000 {!

#190000
0!
0""
0/"
07!
0D!
0E
0M"
0P!
0]!
0g!
0i"
0t!
0w"

#195000
1!
1""
0'
b1000000100000000000000000000000 )!
1*
1/"
b101010111 3
14
b111111100000000000000000000000 5!
17!
b1000000100000000000000000000000 9"
b0 :!
b1000000100000000000000000000000 :"
1;"
1<"
b0 ?!
b11 @"
1D!
1E
b0 G!
b111 H
1M"
b100110001001011001111001 P
1P!
1R"
0S"
1U"
b1000000100000000000000000000000 Z
b1000000100000000000000000000000 \
b111111100000000000000000000000 ]
1]!
b101010111 ]"
1^"
1g!
1i"
b1000000010000000000000000000000 j!
b1000000010000000000000000000000 l!
1m
b1000000100000000000000000000000 n!
b1000000010000000000000000000000 o!
b1000000010000000000000000000000 p!
b1000000100000000000000000000000 r!
b111111100000000000000000000000 s!
1t!
b1000000010000000000000000000000 w!
1w"
b1000000010000000000000000000000 y!
b1000000100000000000000000000000 {!

#200000
0!
0""
0/"
07!
0D!
0E
0M"
0P!
0]!
0g!
0i"
0t!
0w"

